%YAML 1.1
%TAG !u! tag:unity3d.com,2011:
--- !u!29 &1
OcclusionCullingSettings:
  m_ObjectHideFlags: 0
  serializedVersion: 2
  m_OcclusionBakeSettings:
    smallestOccluder: 5
    smallestHole: 0.25
    backfaceThreshold: 100
  m_SceneGUID: 00000000000000000000000000000000
  m_OcclusionCullingData: {fileID: 0}
--- !u!104 &2
RenderSettings:
  m_ObjectHideFlags: 0
  serializedVersion: 9
  m_Fog: 0
  m_FogColor: {r: 0.5, g: 0.5, b: 0.5, a: 1}
  m_FogMode: 3
  m_FogDensity: 0.01
  m_LinearFogStart: 0
  m_LinearFogEnd: 300
  m_AmbientSkyColor: {r: 0.212, g: 0.227, b: 0.259, a: 1}
  m_AmbientEquatorColor: {r: 0.114, g: 0.125, b: 0.133, a: 1}
  m_AmbientGroundColor: {r: 0.047, g: 0.043, b: 0.035, a: 1}
  m_AmbientIntensity: 1
  m_AmbientMode: 0
  m_SubtractiveShadowColor: {r: 0.42, g: 0.478, b: 0.627, a: 1}
  m_SkyboxMaterial: {fileID: 10304, guid: 0000000000000000f000000000000000, type: 0}
  m_HaloStrength: 0.5
  m_FlareStrength: 1
  m_FlareFadeSpeed: 3
  m_HaloTexture: {fileID: 0}
  m_SpotCookie: {fileID: 10001, guid: 0000000000000000e000000000000000, type: 0}
  m_DefaultReflectionMode: 0
  m_DefaultReflectionResolution: 128
  m_ReflectionBounces: 1
  m_ReflectionIntensity: 1
  m_CustomReflection: {fileID: 0}
  m_Sun: {fileID: 0}
  m_IndirectSpecularColor: {r: 0, g: 0, b: 0, a: 1}
  m_UseRadianceAmbientProbe: 0
--- !u!157 &3
LightmapSettings:
  m_ObjectHideFlags: 0
  serializedVersion: 11
  m_GIWorkflowMode: 1
  m_GISettings:
    serializedVersion: 2
    m_BounceScale: 1
    m_IndirectOutputScale: 1
    m_AlbedoBoost: 1
    m_EnvironmentLightingMode: 0
    m_EnableBakedLightmaps: 1
    m_EnableRealtimeLightmaps: 1
  m_LightmapEditorSettings:
    serializedVersion: 12
    m_Resolution: 2
    m_BakeResolution: 40
    m_AtlasSize: 1024
    m_AO: 0
    m_AOMaxDistance: 1
    m_CompAOExponent: 1
    m_CompAOExponentDirect: 0
    m_ExtractAmbientOcclusion: 0
    m_Padding: 2
    m_LightmapParameters: {fileID: 0}
    m_LightmapsBakeMode: 1
    m_TextureCompression: 1
    m_FinalGather: 0
    m_FinalGatherFiltering: 1
    m_FinalGatherRayCount: 256
    m_ReflectionCompression: 2
    m_MixedBakeMode: 2
    m_BakeBackend: 1
    m_PVRSampling: 1
    m_PVRDirectSampleCount: 32
    m_PVRSampleCount: 512
    m_PVRBounces: 2
    m_PVREnvironmentSampleCount: 256
    m_PVREnvironmentReferencePointCount: 2048
    m_PVRFilteringMode: 1
    m_PVRDenoiserTypeDirect: 1
    m_PVRDenoiserTypeIndirect: 1
    m_PVRDenoiserTypeAO: 1
    m_PVRFilterTypeDirect: 0
    m_PVRFilterTypeIndirect: 0
    m_PVRFilterTypeAO: 0
    m_PVREnvironmentMIS: 1
    m_PVRCulling: 1
    m_PVRFilteringGaussRadiusDirect: 1
    m_PVRFilteringGaussRadiusIndirect: 5
    m_PVRFilteringGaussRadiusAO: 2
    m_PVRFilteringAtrousPositionSigmaDirect: 0.5
    m_PVRFilteringAtrousPositionSigmaIndirect: 2
    m_PVRFilteringAtrousPositionSigmaAO: 1
    m_ExportTrainingData: 0
    m_TrainingDataDestination: TrainingData
  m_LightingDataAsset: {fileID: 0}
  m_UseShadowmask: 1
--- !u!196 &4
NavMeshSettings:
  serializedVersion: 2
  m_ObjectHideFlags: 0
  m_BuildSettings:
    serializedVersion: 2
    agentTypeID: 0
    agentRadius: 0.5
    agentHeight: 2
    agentSlope: 45
    agentClimb: 0.4
    ledgeDropHeight: 0
    maxJumpAcrossDistance: 0
    minRegionArea: 2
    manualCellSize: 0
    cellSize: 0.16666667
    manualTileSize: 0
    tileSize: 256
    accuratePlacement: 0
    debug:
      m_Flags: 0
  m_NavMeshData: {fileID: 0}
--- !u!1001 &1099924141
PrefabInstance:
  m_ObjectHideFlags: 0
  serializedVersion: 2
  m_Modification:
    m_TransformParent: {fileID: 0}
    m_Modifications:
    - target: {fileID: 158160755641879040, guid: c8df001d71e6330438b68646202f2658,
        type: 3}
      propertyPath: m_VideoClip
      value: 
      objectReference: {fileID: 32900000, guid: d9d986f3be0d2314db7d0497f8b52371,
        type: 3}
    - target: {fileID: 158160755641879040, guid: c8df001d71e6330438b68646202f2658,
        type: 3}
      propertyPath: m_AspectRatio
      value: 5
      objectReference: {fileID: 0}
    - target: {fileID: 5394576008020466115, guid: c8df001d71e6330438b68646202f2658,
        type: 3}
      propertyPath: m_IsActive
      value: 1
      objectReference: {fileID: 0}
    - target: {fileID: 5394576009069335406, guid: c8df001d71e6330438b68646202f2658,
        type: 3}
      propertyPath: m_AnchoredPosition.x
      value: -0.19999695
      objectReference: {fileID: 0}
    - target: {fileID: 5394576009069335406, guid: c8df001d71e6330438b68646202f2658,
        type: 3}
      propertyPath: m_SizeDelta.x
      value: 2.699997
      objectReference: {fileID: 0}
    - target: {fileID: 5394576009069335406, guid: c8df001d71e6330438b68646202f2658,
        type: 3}
      propertyPath: m_AnchoredPosition.y
      value: -0.5
      objectReference: {fileID: 0}
    - target: {fileID: 5394576009069335406, guid: c8df001d71e6330438b68646202f2658,
        type: 3}
      propertyPath: m_SizeDelta.y
      value: 3.0999985
      objectReference: {fileID: 0}
    - target: {fileID: 5394576009069335406, guid: c8df001d71e6330438b68646202f2658,
        type: 3}
      propertyPath: m_AnchorMin.x
      value: 0.41218832
      objectReference: {fileID: 0}
    - target: {fileID: 5394576009069335406, guid: c8df001d71e6330438b68646202f2658,
        type: 3}
      propertyPath: m_AnchorMin.y
      value: 0.47700003
      objectReference: {fileID: 0}
    - target: {fileID: 5394576009069335406, guid: c8df001d71e6330438b68646202f2658,
        type: 3}
      propertyPath: m_AnchorMax.y
      value: 0.55672157
      objectReference: {fileID: 0}
    - target: {fileID: 5394576009069335406, guid: c8df001d71e6330438b68646202f2658,
        type: 3}
      propertyPath: m_AnchorMax.x
      value: 0.47537667
      objectReference: {fileID: 0}
    - target: {fileID: 5394576009069335410, guid: c8df001d71e6330438b68646202f2658,
        type: 3}
      propertyPath: dialogue.sentences.Array.size
      value: 5
      objectReference: {fileID: 0}
    - target: {fileID: 5394576009069335410, guid: c8df001d71e6330438b68646202f2658,
        type: 3}
      propertyPath: dialogue.name
      value: '"A Photograph of Family"'
      objectReference: {fileID: 0}
    - target: {fileID: 5394576009069335410, guid: c8df001d71e6330438b68646202f2658,
        type: 3}
      propertyPath: dialogue.sentences.Array.data[3]
      value: 'Every time I seen this picture, I would take it to them and we would
        talk about the day over and over until I fell asleep. '
      objectReference: {fileID: 0}
    - target: {fileID: 5394576009069335410, guid: c8df001d71e6330438b68646202f2658,
        type: 3}
      propertyPath: dialogue.sentences.Array.data[4]
      value: I wish they were here so we could talk about it right now...
      objectReference: {fileID: 0}
    - target: {fileID: 5394576009069335410, guid: c8df001d71e6330438b68646202f2658,
        type: 3}
      propertyPath: dialogue.sentences.Array.data[0]
      value: This is one of my favorite pictures that I took with Mommy and Daddy!
      objectReference: {fileID: 0}
    - target: {fileID: 5394576009069335410, guid: c8df001d71e6330438b68646202f2658,
        type: 3}
      propertyPath: dialogue.sentences.Array.data[2]
      value: We had lots of ice cream and lots and lots of fun!
      objectReference: {fileID: 0}
    - target: {fileID: 5394576009069335410, guid: c8df001d71e6330438b68646202f2658,
        type: 3}
      propertyPath: dialogue.sentences.Array.data[1]
      value: This is the day I was brave enough to ride on that ginormous roller coaster
        ride.
      objectReference: {fileID: 0}
    - target: {fileID: 6776721438187587054, guid: c8df001d71e6330438b68646202f2658,
        type: 3}
      propertyPath: m_Name
      value: GameObject
      objectReference: {fileID: 0}
    - target: {fileID: 7461938518771264269, guid: c8df001d71e6330438b68646202f2658,
        type: 3}
      propertyPath: m_LocalPosition.x
      value: 1232
      objectReference: {fileID: 0}
    - target: {fileID: 7461938518771264269, guid: c8df001d71e6330438b68646202f2658,
        type: 3}
      propertyPath: m_LocalPosition.y
      value: 693
      objectReference: {fileID: 0}
    - target: {fileID: 7461938518771264269, guid: c8df001d71e6330438b68646202f2658,
        type: 3}
      propertyPath: m_LocalPosition.z
      value: 0
      objectReference: {fileID: 0}
    - target: {fileID: 7461938518771264269, guid: c8df001d71e6330438b68646202f2658,
        type: 3}
      propertyPath: m_LocalRotation.x
      value: 0
      objectReference: {fileID: 0}
    - target: {fileID: 7461938518771264269, guid: c8df001d71e6330438b68646202f2658,
        type: 3}
      propertyPath: m_LocalRotation.y
      value: 0
      objectReference: {fileID: 0}
    - target: {fileID: 7461938518771264269, guid: c8df001d71e6330438b68646202f2658,
        type: 3}
      propertyPath: m_LocalRotation.z
      value: 0
      objectReference: {fileID: 0}
    - target: {fileID: 7461938518771264269, guid: c8df001d71e6330438b68646202f2658,
        type: 3}
      propertyPath: m_LocalRotation.w
      value: 1
      objectReference: {fileID: 0}
    - target: {fileID: 7461938518771264269, guid: c8df001d71e6330438b68646202f2658,
        type: 3}
      propertyPath: m_RootOrder
      value: 0
      objectReference: {fileID: 0}
    - target: {fileID: 7461938518771264269, guid: c8df001d71e6330438b68646202f2658,
        type: 3}
      propertyPath: m_LocalEulerAnglesHint.x
      value: 0
      objectReference: {fileID: 0}
    - target: {fileID: 7461938518771264269, guid: c8df001d71e6330438b68646202f2658,
        type: 3}
      propertyPath: m_LocalEulerAnglesHint.y
      value: 0
      objectReference: {fileID: 0}
    - target: {fileID: 7461938518771264269, guid: c8df001d71e6330438b68646202f2658,
        type: 3}
      propertyPath: m_LocalEulerAnglesHint.z
      value: 0
      objectReference: {fileID: 0}
    m_RemovedComponents: []
  m_SourcePrefab: {fileID: 100100000, guid: c8df001d71e6330438b68646202f2658, type: 3}
--- !u!1 &1901794031 stripped
GameObject:
  m_CorrespondingSourceObject: {fileID: 5394576008035600101, guid: c8df001d71e6330438b68646202f2658,
    type: 3}
  m_PrefabInstance: {fileID: 1099924141}
  m_PrefabAsset: {fileID: 0}
--- !u!224 &1901794032 stripped
RectTransform:
  m_CorrespondingSourceObject: {fileID: 5394576008035600106, guid: c8df001d71e6330438b68646202f2658,
    type: 3}
  m_PrefabInstance: {fileID: 1099924141}
  m_PrefabAsset: {fileID: 0}
--- !u!114 &1901794033
MonoBehaviour:
  m_ObjectHideFlags: 0
  m_CorrespondingSourceObject: {fileID: 0}
  m_PrefabInstance: {fileID: 0}
  m_PrefabAsset: {fileID: 0}
  m_GameObject: {fileID: 1901794031}
  m_Enabled: 1
  m_EditorHideFlags: 0
  m_Script: {fileID: 11500000, guid: 6c67bd534d30ae74a9bd0f7af729c69a, type: 3}
  m_Name: 
  m_EditorClassIdentifier: 
--- !u!1001 &4326305357380922151
PrefabInstance:
  m_ObjectHideFlags: 0
  serializedVersion: 2
  m_Modification:
    m_TransformParent: {fileID: 1901794032}
    m_Modifications:
    - target: {fileID: 1036642465043292638, guid: aebac4cadc226254e8a36875e169e206,
        type: 3}
      propertyPath: m_OnClick.m_PersistentCalls.m_Calls.Array.data[0].m_Target
      value: 
      objectReference: {fileID: 1901794033}
    - target: {fileID: 1036642465043292638, guid: aebac4cadc226254e8a36875e169e206,
        type: 3}
      propertyPath: m_OnClick.m_PersistentCalls.m_Calls.Array.data[0].m_MethodName
      value: LoadLevel
      objectReference: {fileID: 0}
    - target: {fileID: 1036642465043292638, guid: aebac4cadc226254e8a36875e169e206,
        type: 3}
      propertyPath: m_OnClick.m_PersistentCalls.m_Calls.Array.data[0].m_Arguments.m_StringArgument
      value: Music Box
      objectReference: {fileID: 0}
    - target: {fileID: 2672162335891223633, guid: aebac4cadc226254e8a36875e169e206,
        type: 3}
      propertyPath: m_LocalPosition.x
      value: 0
      objectReference: {fileID: 0}
    - target: {fileID: 2672162335891223633, guid: aebac4cadc226254e8a36875e169e206,
        type: 3}
      propertyPath: m_LocalPosition.y
      value: 0
      objectReference: {fileID: 0}
    - target: {fileID: 2672162335891223633, guid: aebac4cadc226254e8a36875e169e206,
        type: 3}
      propertyPath: m_LocalPosition.z
      value: 0
      objectReference: {fileID: 0}
    - target: {fileID: 2672162335891223633, guid: aebac4cadc226254e8a36875e169e206,
        type: 3}
      propertyPath: m_LocalRotation.x
      value: -0
      objectReference: {fileID: 0}
    - target: {fileID: 2672162335891223633, guid: aebac4cadc226254e8a36875e169e206,
        type: 3}
      propertyPath: m_LocalRotation.y
      value: -0
      objectReference: {fileID: 0}
    - target: {fileID: 2672162335891223633, guid: aebac4cadc226254e8a36875e169e206,
        type: 3}
      propertyPath: m_LocalRotation.z
      value: -0
      objectReference: {fileID: 0}
    - target: {fileID: 2672162335891223633, guid: aebac4cadc226254e8a36875e169e206,
        type: 3}
      propertyPath: m_LocalRotation.w
      value: 1
      objectReference: {fileID: 0}
    - target: {fileID: 2672162335891223633, guid: aebac4cadc226254e8a36875e169e206,
        type: 3}
      propertyPath: m_RootOrder
      value: 2
      objectReference: {fileID: 0}
    - target: {fileID: 2672162335891223633, guid: aebac4cadc226254e8a36875e169e206,
        type: 3}
      propertyPath: m_LocalEulerAnglesHint.x
      value: 0
      objectReference: {fileID: 0}
    - target: {fileID: 2672162335891223633, guid: aebac4cadc226254e8a36875e169e206,
        type: 3}
      propertyPath: m_LocalEulerAnglesHint.y
      value: 0
      objectReference: {fileID: 0}
    - target: {fileID: 2672162335891223633, guid: aebac4cadc226254e8a36875e169e206,
        type: 3}
      propertyPath: m_LocalEulerAnglesHint.z
      value: 0
      objectReference: {fileID: 0}
    - target: {fileID: 2672162335891223633, guid: aebac4cadc226254e8a36875e169e206,
        type: 3}
      propertyPath: m_AnchoredPosition.x
      value: -118
      objectReference: {fileID: 0}
    - target: {fileID: 2672162335891223633, guid: aebac4cadc226254e8a36875e169e206,
        type: 3}
      propertyPath: m_AnchoredPosition.y
      value: -55
      objectReference: {fileID: 0}
    - target: {fileID: 2672162335891223633, guid: aebac4cadc226254e8a36875e169e206,
        type: 3}
      propertyPath: m_SizeDelta.x
      value: 200
      objectReference: {fileID: 0}
    - target: {fileID: 2672162335891223633, guid: aebac4cadc226254e8a36875e169e206,
        type: 3}
      propertyPath: m_SizeDelta.y
      value: 75
      objectReference: {fileID: 0}
    - target: {fileID: 2672162335891223633, guid: aebac4cadc226254e8a36875e169e206,
        type: 3}
      propertyPath: m_AnchorMin.x
      value: 1
      objectReference: {fileID: 0}
    - target: {fileID: 2672162335891223633, guid: aebac4cadc226254e8a36875e169e206,
        type: 3}
      propertyPath: m_AnchorMin.y
      value: 1
      objectReference: {fileID: 0}
    - target: {fileID: 2672162335891223633, guid: aebac4cadc226254e8a36875e169e206,
        type: 3}
      propertyPath: m_AnchorMax.x
      value: 1
      objectReference: {fileID: 0}
    - target: {fileID: 2672162335891223633, guid: aebac4cadc226254e8a36875e169e206,
        type: 3}
      propertyPath: m_AnchorMax.y
      value: 1
      objectReference: {fileID: 0}
    - target: {fileID: 2672162335891223633, guid: aebac4cadc226254e8a36875e169e206,
        type: 3}
      propertyPath: m_Pivot.x
      value: 0.5
      objectReference: {fileID: 0}
    - target: {fileID: 2672162335891223633, guid: aebac4cadc226254e8a36875e169e206,
        type: 3}
      propertyPath: m_Pivot.y
      value: 0.5
      objectReference: {fileID: 0}
    - target: {fileID: 4089548278026400013, guid: aebac4cadc226254e8a36875e169e206,
        type: 3}
      propertyPath: m_Name
      value: Next Button
      objectReference: {fileID: 0}
    m_RemovedComponents: []
  m_SourcePrefab: {fileID: 100100000, guid: aebac4cadc226254e8a36875e169e206, type: 3}
